…
## load the data

```r
cookout <- read.csv("cookout.csv")  # read csv file
cookout %>% as.tibble() # convert to tibble
```

```
## # A tibble: 56 x 4
##    Name  Food.Type Flavor.Strength Toppings     
##    <chr> <chr>     <chr>           <chr>        
##  1 Joe   hamburger bland           katsup       
##  2 Joe   hamburger medium          onions       
##  3 Joe   hamburger bland           mayo         
##  4 Joe   hamburger bland           lettuce      
##  5 Joe   hamburger strong          hotsauce     
##  6 Joe   ice cream bland           sprinkles    
##  7 Joe   ice cream medium          hot chocolate
##  8 Joe   ice cream strong          sour patch   
##  9 Joe   ice cream medium          recees pieces
## 10 Tom   hamburger bland           katsup       
## # ... with 46 more rows
```

## use expand() to find permutations

```r
# all unique combinations of names, food types and flavor strengths
# nesting() outputs only combinations that already appear in the data
flavor<- cookout %>% expand(nesting(Name, Food.Type, Flavor.Strength))
flavor
```

```
## # A tibble: 30 x 3
##    Name   Food.Type Flavor.Strength
##    <chr>  <chr>     <chr>          
##  1 George hamburger bland          
##  2 George hamburger medium         
##  3 George ice cream medium         
##  4 George ice cream strong         
##  5 Jerry  hamburger bland          
##  6 Jerry  hamburger strong         
##  7 Jerry  ice cream bland          
##  8 Jerry  ice cream medium         
##  9 Joe    hamburger bland          
## 10 Joe    hamburger medium         
## # ... with 20 more rows
```
…
