…
Video link explaining the problem:  https://youtu.be/Wu8Gf963jr8

## Packages & loading data

```r
library(tidyverse) 
library(ExPanDaR) # allows for easy permutations
# load the data
cookout <- read.csv("cookout.csv")  # read csv file
cookout %>% tibble() %>%  arrange(Name,Food.Type,Flavor.Strength) # convert to tibble
```

```
## # A tibble: 56 x 4
##    Name   Food.Type Flavor.Strength Toppings    
##    <chr>  <chr>     <chr>           <chr>       
##  1 George hamburger bland           mayo        
##  2 George hamburger bland           tomato      
##  3 George hamburger medium          onions      
##  4 George ice cream medium          cherry      
##  5 George ice cream medium          oreos       
##  6 George ice cream strong          warheads    
##  7 George ice cream strong          sour patch  
##  8 Jerry  hamburger bland           mayo        
##  9 Jerry  hamburger bland           tomato      
## 10 Jerry  hamburger strong          chili flakes
## # ... with 46 more rows
```
…
```r
top_vec2 %>% 
  tibble()%>% 
  group_by(food,combo) %>% 
  summarise(count=n()) %>%
  arrange(desc(count)) # %>%
```

```
## `summarise()` regrouping output by 'food' (override with `.groups` argument)
```

```
## # A tibble: 23 x 3
## # Groups:   food [1]
##    food      combo                    count
##    <chr>     <chr>                    <int>
##  1 ice cream sprinkles,cherry             2
##  2 ice cream sprinkles,oreos              2
##  3 ice cream whipped cream,cherry         2
##  4 ice cream whipped cream,oreos          2
##  5 ice cream pineapples,sprinkles         1
##  6 ice cream pineapples,whipped cream     1
##  7 ice cream pretzel,warheads             1
##  8 ice cream sour patch,cherry            1
##  9 ice cream sour patch,oreos             1
## 10 ice cream sour patch,pretzel           1
## # ... with 13 more rows
```
…
