…
### filling in values 


```r
# Other uses -------------------------------------------------------
# Use with `full_seq()` to fill in values of continuous variables
fruits %>% expand(type, size, full_seq(year, 1))
```

```
## # A tibble: 24 x 3
##    type  size  `full_seq(year, 1)`
##    <chr> <fct>               <dbl>
##  1 apple XS                   2010
##  2 apple XS                   2011
##  3 apple XS                   2012
##  4 apple S                    2010
##  5 apple S                    2011
##  6 apple S                    2012
##  7 apple M                    2010
##  8 apple M                    2011
##  9 apple M                    2012
## 10 apple L                    2010
## # ... with 14 more rows
```


```r
fruits %>% expand(type, size, 2010:2012)
```

```
## # A tibble: 24 x 3
##    type  size  `2010:2012`
##    <chr> <fct>       <int>
##  1 apple XS           2010
##  2 apple XS           2011
##  3 apple XS           2012
##  4 apple S            2010
##  5 apple S            2011
##  6 apple S            2012
##  7 apple M            2010
##  8 apple M            2011
##  9 apple M            2012
## 10 apple L            2010
## # ... with 14 more rows
```
…
